<svg width="276" height="71" viewBox="0 0 276 71" fill="none" xmlns="http://www.w3.org/2000/svg">
<path fill-rule="evenodd" clip-rule="evenodd" d="M6.90198 70.824H9.32398V0H6.90198V70.824Z" fill="#010604"/>
<path fill-rule="evenodd" clip-rule="evenodd" d="M15.13 70.824H16.341V0H15.13V70.824Z" fill="#010604"/>
<path fill-rule="evenodd" clip-rule="evenodd" d="M18.89 70.824H20.101V0H18.89V70.824Z" fill="#010604"/>
<path fill-rule="evenodd" clip-rule="evenodd" d="M3.6875 70.824H4.6495V0H3.6875V70.824Z" fill="#010604"/>
<path fill-rule="evenodd" clip-rule="evenodd" d="M0 70.824H0.962V0H0V70.824Z" fill="#010604"/>
<path fill-rule="evenodd" clip-rule="evenodd" d="M24.896 70.824H26.1065V0H24.896V70.824Z" fill="#010604"/>
<path fill-rule="evenodd" clip-rule="evenodd" d="M264.16 70.824H265.372V0H264.16V70.824Z" fill="#010604"/>
<path fill-rule="evenodd" clip-rule="evenodd" d="M237.068 70.824H238.28V0H237.068V70.824Z" fill="#010604"/>
<path fill-rule="evenodd" clip-rule="evenodd" d="M242.963 70.824H244.174V0H242.963V70.824Z" fill="#010604"/>
<path fill-rule="evenodd" clip-rule="evenodd" d="M248.266 70.824H248.75V0H248.266V70.824Z" fill="#010604"/>
<path fill-rule="evenodd" clip-rule="evenodd" d="M210.348 70.824H211.559V0H210.348V70.824Z" fill="#010604"/>
<path fill-rule="evenodd" clip-rule="evenodd" d="M216.242 70.824H217.453V0H216.242V70.824Z" fill="#010604"/>
<path fill-rule="evenodd" clip-rule="evenodd" d="M222.987 70.824H223.472V0H222.987V70.824Z" fill="#010604"/>
<path fill-rule="evenodd" clip-rule="evenodd" d="M42.6315 70.824H45.053V0H42.6315V70.824Z" fill="#010604"/>
<path fill-rule="evenodd" clip-rule="evenodd" d="M33.0875 70.824H37.447V0H33.0875V70.824Z" fill="#010604"/>
<path fill-rule="evenodd" clip-rule="evenodd" d="M81.1195 70.824H83.5415V0H81.1195V70.824Z" fill="#010604"/>
<path fill-rule="evenodd" clip-rule="evenodd" d="M108.433 70.824H112.792V0H108.433V70.824Z" fill="#010604"/>
<path fill-rule="evenodd" clip-rule="evenodd" d="M175.75 70.824H180.594V0H175.75V70.824Z" fill="#010604"/>
<path fill-rule="evenodd" clip-rule="evenodd" d="M201.947 70.824H204.369V0H201.947V70.824Z" fill="#010604"/>
<path fill-rule="evenodd" clip-rule="evenodd" d="M194.094 70.824H194.82V0H194.094V70.824Z" fill="#010604"/>
<path fill-rule="evenodd" clip-rule="evenodd" d="M185.952 70.824H186.678V0H185.952V70.824Z" fill="#010604"/>
<path fill-rule="evenodd" clip-rule="evenodd" d="M60.5175 70.824H61.7285V0H60.5175V70.824Z" fill="#010604"/>
<path fill-rule="evenodd" clip-rule="evenodd" d="M72.1865 70.824H72.913V0H72.1865V70.824Z" fill="#010604"/>
<path fill-rule="evenodd" clip-rule="evenodd" d="M66.4735 70.824H67.1995V0H66.4735V70.824Z" fill="#010604"/>
<path fill-rule="evenodd" clip-rule="evenodd" d="M94.4351 70.824H95.1621V0H94.4351V70.824Z" fill="#010604"/>
<path fill-rule="evenodd" clip-rule="evenodd" d="M100.63 70.824H101.841V0H100.63V70.824Z" fill="#010604"/>
<path fill-rule="evenodd" clip-rule="evenodd" d="M114.879 70.824H115.606V0H114.879V70.824Z" fill="#010604"/>
<path fill-rule="evenodd" clip-rule="evenodd" d="M117.855 70.824H119.066V0H117.855V70.824Z" fill="#010604"/>
<path fill-rule="evenodd" clip-rule="evenodd" d="M88.722 70.824H89.4485V0H88.722V70.824Z" fill="#010604"/>
<path fill-rule="evenodd" clip-rule="evenodd" d="M75.2035 70.824H77.6095V0H75.2035V70.824Z" fill="#010604"/>
<path fill-rule="evenodd" clip-rule="evenodd" d="M54.5245 70.824H55.7355V0H54.5245V70.824Z" fill="#010604"/>
<path fill-rule="evenodd" clip-rule="evenodd" d="M49.1885 70.824H50.8835V0H49.1885V70.824Z" fill="#010604"/>
<path fill-rule="evenodd" clip-rule="evenodd" d="M229.194 70.824H231.616V0H229.194V70.824Z" fill="#010604"/>
<path fill-rule="evenodd" clip-rule="evenodd" d="M129.186 70.824H130.397V0H129.186V70.824Z" fill="#010604"/>
<path fill-rule="evenodd" clip-rule="evenodd" d="M135.081 70.824H136.291V0H135.081V70.824Z" fill="#010604"/>
<path fill-rule="evenodd" clip-rule="evenodd" d="M149.258 70.824H151.437V0H149.258V70.824Z" fill="#010604"/>
<path fill-rule="evenodd" clip-rule="evenodd" d="M157.4 70.824H159.58V0H157.4V70.824Z" fill="#010604"/>
<path fill-rule="evenodd" clip-rule="evenodd" d="M153.813 70.824H155.024V0H153.813V70.824Z" fill="#010604"/>
<path fill-rule="evenodd" clip-rule="evenodd" d="M140.383 70.824H140.867V0H140.383V70.824Z" fill="#010604"/>
<path fill-rule="evenodd" clip-rule="evenodd" d="M164.018 70.824H164.502V0H164.018V70.824Z" fill="#010604"/>
<path fill-rule="evenodd" clip-rule="evenodd" d="M168.089 70.824H168.574V0H168.089V70.824Z" fill="#010604"/>
<path fill-rule="evenodd" clip-rule="evenodd" d="M188.78 70.824H189.265V0H188.78V70.824Z" fill="#010604"/>
<path fill-rule="evenodd" clip-rule="evenodd" d="M197.52 70.824H198.731V0H197.52V70.824Z" fill="#010604"/>
<path fill-rule="evenodd" clip-rule="evenodd" d="M121.312 70.824H123.734V0H121.312V70.824Z" fill="#010604"/>
<path fill-rule="evenodd" clip-rule="evenodd" d="M253.966 70.824H256.388V0H253.966V70.824Z" fill="#010604"/>
<path fill-rule="evenodd" clip-rule="evenodd" d="M273.143 70.824H275.565V0H273.143V70.824Z" fill="#010604"/>
<path fill-rule="evenodd" clip-rule="evenodd" d="M267.543 70.824H269.965V0H267.543V70.824Z" fill="#010604"/>
</svg>
