<svg width="30" height="30" viewBox="0 0 30 30" fill="none" xmlns="http://www.w3.org/2000/svg">
<path fill-rule="evenodd" clip-rule="evenodd" d="M3.75 10.625V6.25C3.75 4.86929 4.86929 3.75 6.25 3.75H10.625C10.9702 3.75 11.25 4.02982 11.25 4.375V5.625C11.25 5.97018 10.9702 6.25 10.625 6.25H6.25V10.625C6.25 10.9702 5.97018 11.25 5.625 11.25H4.375C4.02982 11.25 3.75 10.9702 3.75 10.625ZM19.375 6.25H23.75V10.625C23.75 10.9702 24.0298 11.25 24.375 11.25H25.625C25.9702 11.25 26.25 10.9702 26.25 10.625V6.25C26.25 4.86929 25.1307 3.75 23.75 3.75H19.375C19.0298 3.75 18.75 4.02982 18.75 4.375V5.625C18.75 5.97018 19.0298 6.25 19.375 6.25ZM6.25 23.75H10.625C10.9702 23.75 11.25 24.0298 11.25 24.375V25.625C11.25 25.9702 10.9702 26.25 10.625 26.25H6.25C4.86929 26.25 3.75 25.1307 3.75 23.75V19.375C3.75 19.0298 4.02982 18.75 4.375 18.75H5.625C5.97018 18.75 6.25 19.0298 6.25 19.375V23.75ZM25.625 18.75H24.375C24.0298 18.75 23.75 19.0298 23.75 19.375V23.75H19.375C19.0298 23.75 18.75 24.0298 18.75 24.375V25.625C18.75 25.9702 19.0298 26.25 19.375 26.25H23.75C25.1307 26.25 26.25 25.1307 26.25 23.75V19.375C26.25 19.0298 25.9702 18.75 25.625 18.75ZM3.125 13.75H26.875C27.2202 13.75 27.5 14.0298 27.5 14.375V15.625C27.5 15.9702 27.2202 16.25 26.875 16.25H3.125C2.77982 16.25 2.5 15.9702 2.5 15.625V14.375C2.5 14.0298 2.77982 13.75 3.125 13.75Z" fill="white"/>
</svg>
