<svg width="18" height="18" viewBox="0 0 18 18" fill="none" xmlns="http://www.w3.org/2000/svg">
<path fill-rule="evenodd" clip-rule="evenodd" d="M4.5 1.5H13.5C14.3284 1.5 15 2.17157 15 3V11.3775C15.0003 11.7773 14.841 12.1607 14.5575 12.4425L10.9425 16.0575C10.6607 16.341 10.2773 16.5003 9.8775 16.5H4.5C3.67157 16.5 3 15.8284 3 15V3C3 2.17157 3.67157 1.5 4.5 1.5ZM5.625 4.5C5.41789 4.5 5.25 4.66789 5.25 4.875V5.625C5.25 5.83211 5.41789 6 5.625 6H12.375C12.5821 6 12.75 5.83211 12.75 5.625V4.875C12.75 4.66789 12.5821 4.5 12.375 4.5H5.625ZM9.375 9H5.625C5.41789 9 5.25 8.83211 5.25 8.625V7.875C5.25 7.66789 5.41789 7.5 5.625 7.5H9.375C9.58211 7.5 9.75 7.66789 9.75 7.875V8.625C9.75 8.83211 9.58211 9 9.375 9ZM9.75 12V15.135L13.635 11.25H10.5C10.0858 11.25 9.75 11.5858 9.75 12Z" fill="#FFB110"/>
</svg>
