<svg width="16" height="16" viewBox="0 0 16 16" fill="none" xmlns="http://www.w3.org/2000/svg">
<path d="M4.55343 2.61353C4.49033 2.55094 4.45483 2.46574 4.45483 2.37687C4.45483 2.28799 4.49033 2.20279 4.55343 2.1402L5.2601 1.43353C5.32059 1.36908 5.40504 1.33252 5.49343 1.33252C5.58182 1.33252 5.66628 1.36908 5.72677 1.43353L11.8534 7.5602C11.9472 7.65388 12 7.78097 12.0001 7.91353V8.08687C12 8.21943 11.9472 8.34652 11.8534 8.4402L5.72677 14.5669C5.66628 14.6313 5.58182 14.6679 5.49343 14.6679C5.40504 14.6679 5.32059 14.6313 5.2601 14.5669L4.55343 13.8602C4.49033 13.7976 4.45483 13.7124 4.45483 13.6235C4.45483 13.5347 4.49033 13.4495 4.55343 13.3869L9.9401 8.0002L4.55343 2.61353Z" fill="white"/>
</svg>
