<svg width="24" height="24" viewBox="0 0 24 24" fill="none" xmlns="http://www.w3.org/2000/svg">
<path fill-rule="evenodd" clip-rule="evenodd" d="M19.3151 8.29995C19.5232 8.51742 19.689 8.77174 19.8043 9.04995C20.1868 9.9597 19.999 11.0097 19.3251 11.7299L19.0655 11.9999C18.6451 12.441 18.4002 13.0206 18.3767 13.6299V13.9999C18.3256 15.2926 17.2912 16.3288 16.0007 16.3799V21.4999C16.0007 21.7761 15.7772 21.9999 15.5015 21.9999H15.2419C15.0857 21.999 14.9318 21.9613 14.7927 21.8899L12.227 20.6099C12.0888 20.5404 11.9259 20.5404 11.7877 20.6099L9.22206 21.8899C9.08297 21.9613 8.92909 21.999 8.77281 21.9999H8.51325C8.23757 21.9999 8.01409 21.7761 8.01409 21.4999V16.3799C7.05336 16.3494 6.19712 15.7646 5.81777 14.8799C5.69852 14.6016 5.63411 14.3028 5.62809 13.9999V13.6499C5.62104 13.3505 5.55665 13.0551 5.43841 12.7799C5.32555 12.5005 5.15939 12.2457 4.94923 12.0299L4.69965 11.7499C4.4916 11.5325 4.32572 11.2782 4.21047 10.9999C3.80584 10.0764 3.99482 8.99982 4.68967 8.26995L4.94923 7.99995C5.36961 7.55894 5.61459 6.97925 5.63808 6.36995V5.99995C5.68406 4.70339 6.7199 3.66144 8.01409 3.60995H8.39345C8.99793 3.59136 9.5741 3.3491 10.0107 2.92995L10.3402 2.66995C11.2936 1.77082 12.7811 1.77082 13.7345 2.66995L14.004 2.92995C14.4443 3.35103 15.023 3.59642 15.6313 3.61995H16.0007C16.963 3.64555 17.8216 4.23198 18.197 5.11995C18.3162 5.39829 18.3806 5.69711 18.3867 5.99995V6.37995C18.3949 6.68253 18.4592 6.98094 18.5763 7.25995C18.6919 7.53504 18.8578 7.78604 19.0655 7.99995L19.3151 8.29995ZM17.608 10.5999L17.8775 10.3199C18.0194 10.1769 18.0518 9.95803 17.9574 9.77995C17.9349 9.72582 17.9046 9.67528 17.8675 9.62995L17.598 9.33995C17.2265 8.9523 16.9318 8.4976 16.7294 7.99995C16.5212 7.50538 16.4061 6.97647 16.39 6.43995V6.09995C16.4083 6.03454 16.4083 5.96535 16.39 5.89995C16.3238 5.72556 16.157 5.61019 15.9707 5.60995H15.6013C14.4874 5.58498 13.4215 5.15078 12.6064 4.38995L12.3268 4.11995C12.2403 4.03942 12.1255 3.99631 12.0074 3.99995C11.885 3.99956 11.7672 4.04607 11.6779 4.12995L11.3884 4.39995C10.5937 5.15519 9.54841 5.58967 8.45335 5.61995H8.11392C7.85302 5.61428 7.63555 5.81877 7.62474 6.07995V6.44995C7.57687 7.55364 7.12977 8.60218 6.36685 9.39995L6.0973 9.67995C5.97326 9.81562 5.94185 10.0123 6.01744 10.1799C6.04805 10.2511 6.09212 10.3156 6.14722 10.3699L6.41677 10.6599C6.78825 11.0476 7.08297 11.5023 7.28531 11.9999C7.51075 12.4912 7.64278 13.0202 7.67466 13.5599V13.8999C7.65633 13.9654 7.65633 14.0345 7.67466 14.0999C7.74088 14.2743 7.90768 14.3897 8.09395 14.3899H8.41341C9.52733 14.4149 10.5932 14.8491 11.4084 15.6099L11.6879 15.8799C11.7745 15.9605 11.8893 16.0036 12.0074 15.9999C12.1291 16.0112 12.2505 15.9754 12.3468 15.8999L12.6363 15.6299C13.4284 14.8794 14.4713 14.4516 15.5614 14.4299H15.9008C16.1617 14.4356 16.3792 14.2311 16.39 13.9699V13.5999C16.4149 12.4842 16.8484 11.4165 17.608 10.5999Z" fill="#FFBF1E"/>
</svg>
