<svg width="43" height="50" viewBox="0 0 43 50" fill="none" xmlns="http://www.w3.org/2000/svg">
<rect width="42.5" height="50" rx="8" fill="white"/>
<rect width="42.5" height="50" rx="8" fill="#FF808B" fill-opacity="0.1"/>
<path fill-rule="evenodd" clip-rule="evenodd" d="M14.4566 34.8744C13.8547 34.8744 13.3818 34.5305 13.1669 34.3155C12.436 33.4557 12.436 32.7249 12.565 32.252C12.651 31.822 12.9089 31.4352 13.2958 31.1772C13.8547 30.7473 15.4023 29.6726 17.6808 28.7268C18.8846 26.5343 19.7014 24.7717 20.2602 23.353C19.3144 21.5474 18.9705 20.0858 18.8846 19.3549C18.7986 18.7531 18.8416 18.1512 19.0135 17.6353C19.4435 16.2597 20.3892 16.2166 20.7761 16.2597C20.8621 16.2597 22.3667 16.4746 22.6247 18.6241C22.6247 18.6292 22.6253 18.6388 22.6262 18.653C22.6403 18.8794 22.7279 20.2766 21.6359 23.31C22.3667 24.5567 23.3985 25.9324 24.9892 27.2651C26.4938 27.2651 28.1275 27.3941 29.847 27.824C30.2339 27.91 30.5779 28.1249 30.8358 28.4259C31.2657 28.8988 31.3517 29.5007 31.1367 30.1025C31.1367 30.1025 31.0507 30.4034 30.7928 30.7044C30.3199 31.3492 29.4171 31.5642 28.6863 31.1773C27.0527 30.3175 25.677 29.4147 24.5592 28.4689C22.2807 28.5549 20.2602 29.0708 18.6266 29.7156C17.8957 31.0483 16.993 32.51 15.9612 34.1436C15.7462 34.4445 15.4883 34.7025 15.1443 34.8314C14.9729 34.8314 14.8294 34.8454 14.7058 34.8574C14.6125 34.8664 14.5306 34.8744 14.4566 34.8744ZM16.5631 30.5324C15.2734 31.2202 14.3706 31.8221 14.0267 32.123C13.8977 32.252 13.7687 32.3809 13.7687 32.5099C13.6827 32.8108 13.8117 33.1118 14.1127 33.4557C14.1127 33.4557 14.3706 33.6707 14.6285 33.5847C14.7145 33.5417 14.8005 33.4987 14.8435 33.3697C15.0291 33.0648 15.2147 32.764 15.3978 32.4673L15.3978 32.4672L15.3978 32.4672C15.8084 31.8017 16.2063 31.1567 16.5631 30.5324ZM29.1592 30.0165C28.2134 29.5436 27.3536 28.9847 26.5798 28.4689C27.5256 28.5549 28.4714 28.6838 29.4171 28.9417C29.589 28.9848 29.718 29.0707 29.804 29.1567C29.933 29.2858 29.933 29.3717 29.847 29.5867C29.847 29.5867 29.804 29.7156 29.675 29.8875C29.5461 30.0595 29.3311 30.1025 29.1592 30.0165ZM20.9911 24.6428C20.5611 25.6316 20.0453 26.7493 19.3575 28.039C20.5182 27.6951 21.7649 27.3942 23.1406 27.2652C22.2808 26.3624 21.55 25.4596 20.9911 24.6428ZM20.1313 17.9793C20.2603 17.5923 20.3893 17.4204 20.5612 17.4204C20.6042 17.4204 21.206 17.5493 21.335 18.7101C21.335 18.7101 21.4209 19.5699 20.7761 21.6334C20.3032 20.5157 20.1313 19.6559 20.0453 19.14C20.0023 18.7101 20.0023 18.3232 20.1313 17.9793Z" fill="#E56353"/>
</svg>
